{
	"main_script": "chemViewer.js",
	"icon": "chemViewer.png",
	"width": 800,
	"height": 600,
	"resize": "free",
	"animation": true,
	"dependencies": [
		"lib/ChemDoodleWeb.css",
		"lib/ChemDoodleWeb.js"
	],
	"load": {
		"rotationx": 0,
		"rotationy": 0,
		"scale": 1,
		"ismoving": true
	},
	"title": "ChemViewer",
	"version": "1.0.0",
	"fileTypes": [ "pdb" ],
	"directory": "molecules",
	"removeFromLauncher": false,
	"plugin": "plugin.js",
	"description": "SAGE2 application based on ChemDoodle Web Components",
	"keywords": [ "sage2", "ChemViewer", "ChemDoodleWeb", "chemistry", "PDB" ],
	"author": "Luc Renambot <renambot@gmail.com>",
	"license": "SAGE2-Software-License"
}
